{
    "manifestVersion": 1,
    "deployments": {
        "aspNetCoreWeb": [
        {
            "name": "MattStudley.BackEnd",
            "parameters": {
                "appBundle": "site.zip",
                "iisPath": "/"
            }
        }
        ]
    }
}